2004/08/16 12:31:42,YahooBB219184026045.bbtec.net ,,,t-watanabe@medi-system.co.jp,t-watanabe@medi-system.co.jp,,
2004/08/16 12:52:49,YahooBB219184026045.bbtec.net ,,,t-watanabe@medi-system.co.jp,,,
2004/08/16 12:53:26,YahooBB219184026045.bbtec.net ,,,t-watanabe@medi-system.co.jp,,,
2004/08/16 12:54:04,YahooBB219184026045.bbtec.net ,,,t-watanabe@medi-system.co.jp,t-watanabe@medi-system.co.jp,,
2004/08/16 12:55:11,YahooBB219184026045.bbtec.net ,,,t-watanabe@medi-system.co.jp,t-watanabe@medi-system.co.jp,,
2004/08/16 12:55:28,YahooBB219184026045.bbtec.net ,,,t-watanabe@medi-system.co.jp,t-watanabe@medi-system.co.jp,,
2004/08/16 12:59:19,YahooBB219184026045.bbtec.net ,,,t-watanabe@medi-system.co.jp,t-watanabe@medi-system.co.jp,,
2004/08/16 13:01:48,YahooBB219184026045.bbtec.net ,,,t-watanabe@medi-system.co.jp,t-watanabe@medi-system.co.jp,,
2004/08/16 13:03:20,YahooBB219184026045.bbtec.net ,,,t-watanabe@medi-system.co.jp,t-watanabe@medi-system.co.jp,,
2004/08/16 13:03:47,YahooBB219184026045.bbtec.net ,,,t-watanabe@medi-system.co.jp,t-watanabe@medi-system.co.jp,,
2004/08/16 13:04:08,YahooBB219184026045.bbtec.net ,,,t-watanabe@medi-system.co.jp,t-watanabe@medi-system.co.jp,,
2004/08/16 13:04:48,YahooBB219184026045.bbtec.net ,,,t-watanabe@medi-system.co.jp,t-watanabe@medi-system.co.jp,,
2004/08/16 13:09:49,YahooBB219184026045.bbtec.net ,,,t-watanabe@medi-system.co.jp,t-watanabe@medi-system.co.jp,,
2004/08/16 13:10:35,YahooBB219184026045.bbtec.net ,,,t-watanabe@medi-system.co.jp,t-watanabe@medi-system.co.jp,,
2004/08/16 13:11:41,YahooBB219184026045.bbtec.net ,,,t-watanabe@medi-system.co.jp,t-watanabe@medi-system.co.jp,,
2004/08/16 13:12:33,YahooBB219184026045.bbtec.net ,,,t-watanabe@medi-system.co.jp,t-watanabe@medi-system.co.jp,,
2004/08/16 13:33:25,YahooBB219184026045.bbtec.net ,,,t-watanabe@medi-system.co.jp,t-watanabe@medi-system.co.jp,,
2004/08/16 13:34:10,YahooBB219184026045.bbtec.net ,,,t-watanabe@medi-system.co.jp,t-watanabe@medi-system.co.jp,,
2004/08/16 13:34:53,YahooBB219184026045.bbtec.net ,,,t-watanabe@medi-system.co.jp,t-watanabe@medi-system.co.jp,,
2004/08/16 13:42:02,YahooBB219184026045.bbtec.net ,,,t-watanabe@medi-system.co.jp,t-watanabe@medi-system.co.jp,,
2004/08/16 13:44:30,YahooBB219184026045.bbtec.net ,,,t-watanabe@medi-system.co.jp,t-watanabe@medi-system.co.jp,,
2004/08/16 13:46:42,YahooBB219184026045.bbtec.net ,,,t-watanabe@medi-system.co.jp,t-watanabe@medi-system.co.jp,,
2004/08/16 13:47:45,YahooBB219184026045.bbtec.net ,,,t-watanabe@medi-system.co.jp,t-watanabe@medi-system.co.jp,,
2004/08/16 13:48:24,YahooBB219184026045.bbtec.net ,,,t-watanabe@medi-system.co.jp,t-watanabe@medi-system.co.jp,,
2004/08/16 13:48:59,YahooBB219184026045.bbtec.net ,,,t-watanabe@medi-system.co.jp,t-watanabe@medi-system.co.jp,,
2004/08/16 13:49:23,YahooBB219184026045.bbtec.net ,,,t-watanabe@medi-system.co.jp,t-watanabe@medi-system.co.jp,,
2004/08/16 13:49:52,YahooBB219184026045.bbtec.net ,,,t-watanabe@medi-system.co.jp,t-watanabe@medi-system.co.jp,,
2004/08/16 13:54:27,YahooBB219184026045.bbtec.net ,,,あああ,あああ,realtake60@hotmail.com,
2004/08/16 14:00:36,YahooBB219184026045.bbtec.net ,,,あああ,あああ,t-watanabe@medi-system.co.jp,
2004/08/16 14:13:04,YahooBB219184026045.bbtec.net ,,,あああ,あ,t-watanabe@medi-system.co.jp,
2004/08/16 14:15:35,YahooBB219184026045.bbtec.net ,,,あ,あ,,
2004/08/16 15:46:06,YahooBB219184026045.bbtec.net ,,,あああ,あああ,,
