<?php
/**
 * forget_me.mod 
 * --------------
 * Squirrelspell module
 *
 * Copyright (c) 1999-2003 The SquirrelMail development team
 * Licensed under the GNU GPL. For full terms see the file COPYING.
 *
 * This module deletes the words from the user dictionary. Called
 * after EDIT_DIC module.                                        
 *
 * $Id: forget_me.mod,v 1.5.2.1 2004/04/26 22:04:39 kink Exp $
 *
 * @author Konstantin Riabitsev <icon@duke.edu> ($Author: kink $)
 * @version $Date: 2004/04/26 22:04:39 $
 */

$cwd = getcwd();
chdir(dirname(dirname(dirname(dirname(dirname(__FILE__))))));
require_once(dirname(dirname(dirname(dirname(dirname(__FILE__)))))."/about_comedix.php");
chdir($cwd);

global $SQSPELL_VERSION;

$words_ary = $_POST['words_ary'];
$sqspell_use_app = $_POST['sqspell_use_app'];

/**
 * If something needs to be deleted, then $words_ary will be
 * non-zero length.
 */
if (sizeof($words_ary)){
  $words=sqspell_getWords();
  $lang_words = sqspell_getLang($words, $sqspell_use_app);
  $msg = '<p>'
     . sprintf(_("Deleting the following entries from <strong>%s</strong> dictionary:"), $sqspell_use_app)
     . '</p>'
     . "<ul>\n";
  for ($i=0; $i<sizeof($words_ary); $i++){
    /**
     * Remove word by word...
     */
    $lang_words=str_replace("$words_ary[$i]\n", "", $lang_words);
    $msg .= '<li>' . h($words_ary[$i]) . "</li>\n";
  }
  $new_words_ary=split("\n", $lang_words);
  /**
   * Wipe this lang, if only 2 members in array (no words left).
   * # Language
   * # End
   */
  if (sizeof($new_words_ary)<=2) {
    $lang_words='';
  }
  $new_lang_words = $lang_words;
  /**
   * Write the dictionary back to the disk.
   */
  $langs=sqspell_getSettings($words);
  $words_dic = "# SquirrelSpell User Dictionary $SQSPELL_VERSION\n# "
     . "Last Revision: " . date("Y-m-d") . "\n# LANG: " 
     . join(", ", $langs) . "\n";
  for ($i=0; $i<sizeof($langs); $i++){
    /**
     * Only rewrite the contents of the selected language.
     * Otherwise just write the contents back.
     */
    if ($langs[$i]==$sqspell_use_app) {
      $lang_words = $new_lang_words;
    } else {
      $lang_words = sqspell_getLang($words, $langs[$i]);
    }
    if ($lang_words) {
      $words_dic .= $lang_words;
    }
  }
  $words_dic .= "# End\n";
  sqspell_writeWords($words_dic);
  $msg .= '</ul><p>' . _("All done!") . "</p>\n";
  sqspell_makePage(_("Personal Dictionary Updated"), null, $msg);
} else {
  /**
   * Click on some words first, Einstein!
   */
  sqspell_makePage(_("Personal Dictionary"), null, 
		   '<p>' . _("No changes requested.") . '</p>');
}

/**
 * For Emacs weenies:
 * Local variables:
 * mode: php
 * End:
 * vim: syntax=php
 */    
?>
